1 10 20
100 200 125
201 210 89
900 1000 174
967 5919 238
2571 6345 262
11324 10905 268
11031 16139 276
23314 24591 282
25041 28176 308
34594 38017 324
33566 39845 324
44383 41922 288
47568 42024 314
59918 54851 322
59215 54840 322
66817 68848 312
69054 62668 330
72367 79555 351
72084 77048 351
81109 82742 320
83929 89894 333
95237 94350 328
97717 95843 297
106282 106270 248
100802 107394 354
119714 118218 318
116970 118430 336
124006 126710 318
123405 121151 336
132664 137437 344
134550 136772 344
149700 144138 357
146981 141092 375
151902 159049 383
151301 154815 352
165604 164568 321
165551 163508 334
174344 170959 347
172679 175045 347
182279 185989 334
186507 180078 365
191219 191275 236
198316 190761 360
200037 208197 373
201391 209524 373
210431 219249 386
218921 218967 218
223894 223625 218
223696 226990 368
235154 238990 350
232486 233082 293
248723 248643 288
248219 244437 350
255865 251191 363
250252 257371 363
266702 265824 332
265619 264591 332
272429 273791 314
279844 271954 389
283785 286390 376
288053 286141 327
293158 294351 358
295738 298472 327
307748 306912 278
308804 303497 371
313701 317077 353
318944 310505 384
326268 329058 335
326097 322311 384
338279 338205 291
330458 338020 366
341429 348618 441
346888 342356 441
358611 353458 379
351844 354652 348
362134 363843 361
361569 363564 361
378497 370968 423
376941 374474 423
388612 381321 374
386545 384482 348
398490 394120 405
396257 397567 330
402539 405256 343
401575 402528 299
410127 415771 374
411400 411635 330
429086 428817 281
429089 421305 418
435889 435096 250
430322 436783 387
441566 444195 356
448040 446988 325
450821 458232 369
458726 450968 369
464340 460013 444
460897 461299 444
477955 477147 382
473697 471940 338
487469 488810 382
485853 483594 320
497972 498742 351
499609 492245 426
509771 506812 382
504414 508020 382
511998 517422 395
513517 514958 364
527755 529603 377
522442 529882 408
531508 537047 377
535595 532832 377
543197 545200 359
548091 548688 315
552255 554055 346
559570 557368 315
569301 565425 359
565512 562982 421
573985 576531 346
574359 577865 390
589859 586545 328
582506 583995 434
592971 595837 328
596600 594236 372
602273 603751 297
608416 609067 359
617542 611813 447
616207 613865 447
627706 621813 509
628084 620294 509
633399 631562 385
632925 631758 385
649804 649266 385
648906 641810 416
654128 659257 429
654132 651734 385
668116 662102 442
667159 661943 442
676927 675664 385
677592 679779 380
686217 682264 380
687364 682599 398
693144 690070 442
691520 696645 442
700631 701130 292
709313 700515 504
715978 712728 380
715803 711754 411
721963 723734 411
725629 725223 287
736479 739321 424
735523 731422 380
748580 743303 362
745090 743740 318
758882 750676 424
752311 755140 424
760843 763751 375
767577 767959 468
770827 771555 349
777315 779396 437
787375 788975 406
784376 782971 331
795229 790217 437
792857 791371 437
803905 809426 406
808037 802521 406
813944 812200 375
813771 812667 375
820848 827236 375
825538 821567 375
831783 838924 525
832003 832270 282
848526 845846 419
843364 846880 401
850141 855386 419
858819 855797 375
863226 867711 388
865039 869569 388
870464 870798 295
876569 876143 326
881449 882533 326
885584 886680 357
899796 890552 370
897098 895643 370
903238 904544 295
906015 901084 401
916797 914368 370
917331 911114 401
923165 923169 171
920416 922192 339
932354 931418 308
939690 938752 507
947273 947573 295
942983 949104 383
958798 959122 308
953870 954901 383
968075 960866 414
961831 969374 414
978275 972838 383
977062 971803 383
983825 985646 427
984326 986854 427
994853 990043 365
993149 993163 153
