1 10 20
100 200 125
201 210 89
900 1000 174
50 35 110
100 1 119
168 22 122
1 999999 525
1 1 1
10 100 119
100 1000 179
1000 2000 182
888 407 179
869 21 171
459 361 134
569 390 142
868 829 148
580 781 171
464 198 144
887 800 179
869 549 171
280 909 179
641 498 137
709 391 171
368 305 144
513 173 144
75 510 144
705 153 171
470 175 144
97 95 119
345 804 171
685 861 171
391 445 134
237 67 128
784 972 179
314 111 131
515 326 144
559 369 142
348 210 144
486 497 142
300 677 145
323 701 145
700 119 145
164 987 179
27 554 144
445 836 171
361 666 145
448 175 144
988 262 179
303 767 171
535 696 145
70 506 144
434 913 179
993 600 179
415 356 134
22 250 128
304 748 171
127 905 179
871 846 179
636 374 142
191 471 144
34 424 144
908 407 179
955 395 179
440 621 142
699 283 145
994 25 179
915 171 179
170 394 144
918 5 179
482 69 144
656 656 114
251 118 128
755 630 171
667 926 179
446 175 144
817 888 179
833 17 171
303 775 171
162 535 144
392 508 142
870 313 171
876 193 179
871 536 179
228 670 145
147 124 122
290 772 171
922 154 179
619 273 144
48 980 179
941 210 179
706 398 171
667 184 145
118 654 145
87 857 171
190 219 120
777 153 171
319 121 131
863 1 171
614 584 132
588 299 144
987 804 179
135 570 144
384 60 144
659 624 145
126 87 119
205 368 144
33 460 144
637 418 142
901 770 179
836 315 171
218 628 144
327 357 144
222 675 145
164 557 144
642 188 144
608 870 171
449 131 144
889 106 179
591 783 171
859 728 153
671 666 145
708 651 171
818 720 153
365 484 134
827 911 179
606 511 137
445 479 129
763 206 171
169 606 144
368 707 171
552 421 142
989 850 179
288 138 128
814 757 153
146 66 122
332 47 144
481 846 171
227 768 171
426 700 145
230 232 128
552 427 142
605 826 171
865 494 171
353 295 144
780 904 179
277 644 144
718 190 171
266 644 144
534 826 171
535 568 137
957 59 179
388 921 179
767 465 171
689 88 145
502 290 144
502 269 144
335 990 179
954 798 179
932 388 179
135 21 122
762 682 171
238 154 128
444 130 144
193 949 179
391 167 144
769 95 171
187 567 144
986 308 179
870 317 171
952 263 179
66 629 144
754 196 171
682 444 145
529 240 144
701 507 145
111 306 128
217 711 171
725 173 171
285 177 128
564 726 171
377 561 142
144 520 144
377 147 144
511 245 144
967 826 179
82 122 119
90 738 171
941 244 179
547 63 144
197 168 125
861 582 171
962 297 179
164 358 144
977 979 99
944 67 179
894 876 148
249 280 123
462 159 144
741 518 171
994 896 174
212 939 179
