1 10 20
100 200 125
201 210 89
1 2 2
1 90 116
1 888 179
1 9999 262
1 99999 351
1 888888 525
1 2 2
2 3 8
3 4 8
1 5 8
1 6 9
1 7 17
1 8 17
1 9 20
1 10 20
1 11 20
1 12 20
1 13 20
1 14 20
1 15 20
1 16 20
1 17 20
1 18 21
1 19 21
1 20 21
1 21 21
1 22 21
22 28 112
22 50 112
22 52 112
22 100 119
22 1000 179
22 999 179
22 23 16
24 25 24
25 26 24
10 95 116
20 888 179
20 9999 262
20 99999 351
20 777777 509
80 85 111
80 887 179
80 8877 262
80 88779 351
80 887799 525
80 81 23
888 999 174
9999 10000 92
999 10000 262
89 90 31
90 100 119
101 103 88
104 105 39
200 205 40
200 270 128
1000 10001 262
1000 10002 262
1000 10003 262
1000 10004 262
1000 10005 262
5444 54445 340
5444 54446 340
5444 54447 340
5444 54448 340
5444 54449 340
5444 54450 340
22 23 16
22 24 16
22 25 24
22 26 24
22 27 112
22 28 112
22 29 112
22 30 112
22 31 112
22 32 112
22 33 112
22 34 112
22 35 112
22 36 112
22 37 112
22 38 112
22 29 112
22 40 112
22 41 112
22 42 112
22 43 112
22 44 112
22 45 112
10001 10000 180
10002 10000 180
10004 10000 180
10010 10000 180
10020 10000 211
10030 10000 211
10040 10000 211
10050 10000 211
2 1 2
5 2 8
100 20 119
500 40 144
999999 1 525
999999 50 525
